{
    "nodes": [
        {
            "xPos": 3,
            "yPos": -0.3,
            "cardId": "1"
        },
        {
            "xPos": 3,
            "yPos": 2.25,
            "cardId": "2"
        },
        {
            "xPos": 1.2,
            "yPos": 1.3,
            "cardId": "3"
        },
        {
            "xPos": -3.9,
            "yPos": 0.2,
            "cardId": "4"
        },
        {
            "xPos": -1.8,
            "yPos": 0.6,
            "cardId": "5"
        },
        {
            "xPos": 6.3,
            "yPos": 1.5,
            "cardId": "7"
        },
        {
            "xPos": -3,
            "yPos": 1.6,
            "cardId": "8"
        },
        {
            "xPos": -0.1,
            "yPos": -0.2,
            "cardId": "9"
        },
        {
            "xPos": 0.7,
            "yPos": 3.5,
            "cardId": "10"
        },
        {
            "xPos": 0.6,
            "yPos": 2.7,
            "cardId": "11"
        },
        {
            "xPos": 0.5,
            "yPos": 0.4,
            "cardId": "12"
        },
        {
            "xPos": 1.2,
            "yPos": -1.8,
            "cardId": "13"
        },
        {
            "xPos": -2.9,
            "yPos": -0.9,
            "cardId": "14"
        },
        {
            "xPos": 1.2,
            "yPos": -2.9,
            "cardId": "15"
        },
        {
            "xPos": 0.8,
            "yPos": -4,
            "cardId": "16"
        },
        {
            "xPos": -0.1,
            "yPos": -1,
            "cardId": "17"
        },
        {
            "xPos": 3,
            "yPos": -1,
            "cardId": "18"
        },
        {
            "xPos": 3,
            "yPos": 1.6,
            "cardId": "19"
        },
        {
            "xPos": 3,
            "yPos": 3,
            "cardId": "20"
        },
        {
            "xPos": 3,
            "yPos": -1.7,
            "cardId": "21"
        },
        {
            "xPos": 3,
            "yPos": 0.4,
            "cardId": "22"
        },
        {
            "xPos": 3,
            "yPos": -2.4,
            "cardId": "23"
        },
        {
            "xPos": 3,
            "yPos": 1,
            "cardId": "24"
        },
        {
            "xPos": 6.5,
            "yPos": 4.1,
            "cardId": "27"
        }
    ],
    "edges": [],
    "background": [
        {
            "shape": "rectangle",
            "fillStyle": "#ed0b00",
            "x": 3,
            "y": -1.5,
            "width": 1,
            "height": 2.5
        },
        {
            "shape": "rectangle",
            "fillStyle": "#ffcb43",
            "x": 3,
            "y": 0.55,
            "width": 1,
            "height": 1.6
        },
        {
            "shape": "rectangle",
            "fillStyle": "#3ac010",
            "x": 3,
            "y": 2.3,
            "width": 1,
            "height": 2
        }
    ],
    "version": "1.6.3",
    "title": {
        "fr-FR": "Lots 1 à 3",
	"en-GB": "Sets 1 to 3",
	"de-DE": "Sets 1 bis 3"
    },
    "lot": "3",
    "variants": [
        "v7.0"
    ]
}
